{
  "uid" : "d276c2c72fafa53b",
  "name" : "TestClass.test_login",
  "title" : "Test login",
  "time" : {
    "start" : 1487553615950,
    "stop" : 1487553616489,
    "duration" : 539
  },
  "summary" : {
    "attachments" : 1,
    "steps" : 4
  },
  "failure" : {
    "message" : "AssertionError: Response body doesn't contain token",
    "stackTrace" : "self = <tests.login_test.TestClass instance at 0x7f4c4acbbea8>\n\n    @allure.feature(\"Login\")\n    @allure.testcase(\"Positive: Login test\")\n    @allure.severity(pytest.allure.severity_level.CRITICAL)\n    def test_login(self):\n        r = u.send_get_request(self.login_request, {'email': self.email, 'password': self.password})\n        u.attach_response(r.text)\n        u.check_response_status(r.status_code, requests.codes.ok)\n>       u.check_response_body(r.text, \"token\")\n\ntests/login_test.py:36: \n_ _ _ _ _ _ _ _ _ _ _ _ _ _ _ _ _ _ _ _ _ _ _ _ _ _ _ _ _ _ _ _ _ _ _ _ _ _ _ _ \n/usr/local/lib/python2.7/dist-packages/allure/common.py:57: in impl\n    return func(*a, **kw)\n_ _ _ _ _ _ _ _ _ _ _ _ _ _ _ _ _ _ _ _ _ _ _ _ _ _ _ _ _ _ _ _ _ _ _ _ _ _ _ _ \n\nself = <tests.my_utils.MyUtils instance at 0x7f4c4ad09560>\nactual = '{\"page\":1,\"per_page\":3,\"total\":12,\"total_pages\":4,\"data\":[{\"id\":1,\"name\":\"cerulean\",\"year\":2000,\"pantone_value\":\"15-4...uchsia rose\",\"year\":2001,\"pantone_value\":\"17-2031\"},{\"id\":3,\"name\":\"true red\",\"year\":2002,\"pantone_value\":\"19-1664\"}]}'\nexpected = 'token'\n\n    @allure.step(\"Check response body.\")\n    def check_response_body(self, actual, expected):\n        if expected in actual:\n            assert True\n        else:\n>           assert False, \"Response body doesn't contain \" + expected\nE           AssertionError: Response body doesn't contain token\n\ntests/my_utils.py:19: AssertionError"
  },
  "description" : null,
  "severity" : "CRITICAL",
  "status" : "FAILED",
  "testId" : {
    "name" : "Positive: Login test",
    "url" : "Positive: Login test"
  },
  "suite" : {
    "uid" : "d00fc28e7c7aa362",
    "name" : "tests.login_test",
    "title" : "Login test"
  },
  "steps" : [ {
    "name" : "Send GET request.",
    "title" : "Send GET request.",
    "time" : {
      "start" : 1487553615952,
      "stop" : 1487553616456,
      "duration" : 504
    },
    "summary" : {
      "attachments" : 0,
      "steps" : 0
    },
    "status" : "PASSED",
    "attachments" : [ ],
    "steps" : [ ]
  }, {
    "name" : "Received response.",
    "title" : "Received response.",
    "time" : {
      "start" : 1487553616457,
      "stop" : 1487553616457,
      "duration" : 0
    },
    "summary" : {
      "attachments" : 1,
      "steps" : 0
    },
    "status" : "PASSED",
    "attachments" : [ {
      "title" : "Received response",
      "source" : "7cdd914d-0fc9-4353-a9be-a3036460e1f9-attachment.json",
      "type" : "application/json",
      "size" : 258,
      "uid" : "85cd9a77de7193a4"
    } ],
    "steps" : [ ]
  }, {
    "name" : "Check response status.",
    "title" : "Check response status.",
    "time" : {
      "start" : 1487553616457,
      "stop" : 1487553616457,
      "duration" : 0
    },
    "summary" : {
      "attachments" : 0,
      "steps" : 0
    },
    "status" : "PASSED",
    "attachments" : [ ],
    "steps" : [ ]
  }, {
    "name" : "Check response body.",
    "title" : "Check response body.",
    "time" : {
      "start" : 1487553616457,
      "stop" : 1487553616457,
      "duration" : 0
    },
    "summary" : {
      "attachments" : 0,
      "steps" : 0
    },
    "status" : "FAILED",
    "attachments" : [ ],
    "steps" : [ ]
  } ],
  "attachments" : [ ],
  "issues" : [ ],
  "labels" : [ {
    "name" : "severity",
    "value" : "critical"
  }, {
    "name" : "testId",
    "value" : "Positive: Login test"
  }, {
    "name" : "host",
    "value" : "bbohomolov"
  }, {
    "name" : "suite-title",
    "value" : null
  }, {
    "name" : "suite-name",
    "value" : "tests.login_test"
  }, {
    "name" : "feature",
    "value" : "Login"
  }, {
    "name" : "thread",
    "value" : "8843-MainThread"
  } ],
  "parameters" : [ ]
}